wv_little_cpu.vcd
$version Generated by VerilatedVcd $end
$date Wed May  1 16:44:47 2024
 $end
$timescale   1ps $end

 $scope module TOP $end
  $var wire  1 = i_clk $end
  $var wire  1 > i_rst $end
  $scope module $unit $end
   $var wire 32 Q ALU_ADD [31:0] $end
   $var wire 32 P ALU_XOR [31:0] $end
   $var wire  8 B OP_add [7:0] $end
   $var wire  8 C OP_xor [7:0] $end
  $upscope $end
  $scope module little_cpu $end
   $var wire 32 ? BITS [31:0] $end
   $var wire  1 ( acc_zero $end
   $var wire  8 ' accum_out [7:0] $end
   $var wire  1 1 alu_ctrl $end
   $var wire  8 6 alu_out_wire [7:0] $end
   $var wire  1 = i_clk $end
   $var wire  1 > i_rst $end
   $var wire 16 $ inst_reg_out [15:0] $end
   $var wire  1 , ld_acc $end
   $var wire  1 - ld_ir $end
   $var wire  1 * ld_mar $end
   $var wire  1 ) ld_mdr $end
   $var wire  1 + ld_pc $end
   $var wire  8 4 mar_to_mem_module_wire [7:0] $end
   $var wire 16 # mdr_reg_out [15:0] $end
   $var wire  1 @ mem_rw $end
   $var wire 16 A mem_to_mdr_reg_wire [15:0] $end
   $var wire  1 0 mx_accum_ab $end
   $var wire  8 3 mx_ir_pc_mem_wire [7:0] $end
   $var wire  1 / mx_mar_ab $end
   $var wire  1 . mx_pc_ab $end
   $var wire  8 5 mx_to_accum_wire [7:0] $end
   $var wire  8 2 p1_mx_wire [7:0] $end
   $var wire  8 % pc_mx_wire [7:0] $end
   $var wire  8 & pc_out [7:0] $end
   $scope module accum $end
    $var wire 32 N BITS [31:0] $end
    $var wire  1 = i_clk $end
    $var wire  8 5 i_data [7:0] $end
    $var wire  1 , i_ld $end
    $var wire  8 ' o_data [7:0] $end
    $var wire  1 ( o_zero $end
    $var wire  8 ' value [7:0] $end
   $upscope $end
   $scope module alu $end
    $var wire 32 N BITS [31:0] $end
    $var wire  8 < i_l [7:0] $end
    $var wire  1 1 i_op $end
    $var wire  8 ' i_r [7:0] $end
    $var wire  8 6 o_out [7:0] $end
   $upscope $end
   $scope module ctrl $end
    $var wire  8 I S_Exe_Alu_0 [7:0] $end
    $var wire  8 J S_Exe_Alu_1 [7:0] $end
    $var wire  8 K S_Exe_Alu_2 [7:0] $end
    $var wire  8 L S_Exe_Alu_3 [7:0] $end
    $var wire  8 M S_Exe_Alu_4 [7:0] $end
    $var wire  8 B S_Fetch_0 [7:0] $end
    $var wire  8 C S_Fetch_1 [7:0] $end
    $var wire  8 D S_Fetch_2 [7:0] $end
    $var wire  8 E S_Fetch_3 [7:0] $end
    $var wire  8 F S_Fetch_4 [7:0] $end
    $var wire  8 G S_Inc_0 [7:0] $end
    $var wire  8 H S_Inc_1 [7:0] $end
    $var wire  8 8 current_state [7:0] $end
    $var wire  1 ( i_acc_zero $end
    $var wire  1 = i_clk $end
    $var wire  8 7 i_opcode [7:0] $end
    $var wire  1 > i_rst $end
    $var wire  8 9 next_state [7:0] $end
    $var wire  1 1 o_alu_ctrl $end
    $var wire  1 , o_ld_acc $end
    $var wire  1 - o_ld_ir $end
    $var wire  1 * o_ld_mar $end
    $var wire  1 ) o_ld_mdr $end
    $var wire  1 + o_ld_pc $end
    $var wire  1 @ o_mem_rw $end
    $var wire  1 0 o_mux_ACC_to_mdr_alur $end
    $var wire  1 / o_mux_MAR_to_pc_ird $end
    $var wire  1 . o_mux_PC_to_ir_p1 $end
   $upscope $end
   $scope module inst_reg $end
    $var wire 32 ? BITS [31:0] $end
    $var wire  1 = i_clk $end
    $var wire 16 # i_data [15:0] $end
    $var wire  1 - i_ld $end
    $var wire 16 $ o_data [15:0] $end
    $var wire 16 $ value [15:0] $end
   $upscope $end
   $scope module mem $end
    $var wire 32 ? BITS [31:0] $end
    $var wire 32 O MEMADDRS [31:0] $end
    $var wire  8 4 i_addr [7:0] $end
    $var wire  1 = i_clk $end
    $var wire 16 ; i_data [15:0] $end
    $var wire  1 @ i_rw $end
    $var wire 16 A o_data [15:0] $end
   $upscope $end
   $scope module mem_addr_reg $end
    $var wire 32 N BITS [31:0] $end
    $var wire  1 = i_clk $end
    $var wire  8 3 i_data [7:0] $end
    $var wire  1 * i_ld $end
    $var wire  8 4 o_data [7:0] $end
    $var wire  8 4 value [7:0] $end
   $upscope $end
   $scope module mem_data_reg $end
    $var wire 32 ? BITS [31:0] $end
    $var wire  1 = i_clk $end
    $var wire 16 A i_data [15:0] $end
    $var wire  1 ) i_ld $end
    $var wire 16 # o_data [15:0] $end
    $var wire 16 # value [15:0] $end
   $upscope $end
   $scope module mx_alur_mdr $end
    $var wire 32 N BITS [31:0] $end
    $var wire  8 6 i_a [7:0] $end
    $var wire  1 0 i_ab_sw $end
    $var wire  8 < i_b [7:0] $end
    $var wire  8 5 o_out [7:0] $end
   $upscope $end
   $scope module mx_ir_pc $end
    $var wire 32 N BITS [31:0] $end
    $var wire  8 : i_a [7:0] $end
    $var wire  1 / i_ab_sw $end
    $var wire  8 & i_b [7:0] $end
    $var wire  8 3 o_out [7:0] $end
   $upscope $end
   $scope module mx_p1_inst_rg $end
    $var wire 32 N BITS [31:0] $end
    $var wire  8 2 i_a [7:0] $end
    $var wire  1 . i_ab_sw $end
    $var wire  8 : i_b [7:0] $end
    $var wire  8 % o_out [7:0] $end
   $upscope $end
   $scope module pc_plus_one $end
    $var wire 32 N BITS [31:0] $end
    $var wire  8 & in [7:0] $end
    $var wire  8 2 out [7:0] $end
   $upscope $end
   $scope module prog_ctr $end
    $var wire 32 N BITS [31:0] $end
    $var wire  1 = i_clk $end
    $var wire  8 % i_data [7:0] $end
    $var wire  1 + i_ld $end
    $var wire  8 & o_data [7:0] $end
    $var wire  8 & value [7:0] $end
   $upscope $end
  $upscope $end
 $upscope $end
$enddefinitions $end


#0
b0000000000000000 #
b0000000000000000 $
b00000000 %
b00000000 &
b00000000 '
1(
0)
0*
0+
0,
0-
0.
0/
00
01
b00000001 2
b00000000 3
b00000000 4
b00000000 5
b00000000 6
b00000000 7
b00000000 8
b00000001 9
b00000000 :
b0000000000000000 ;
b00000000 <
1=
0>
b00000000000000000000000000010000 ?
0@
b0000000000000100 A
b00000000 B
b00000001 C
b00000010 D
b00000011 E
b00000100 F
b00001010 G
b00001011 H
b00010100 I
b00010101 J
b00010110 K
b00010111 L
b00011000 M
b00000000000000000000000000001000 N
b00000000000000000000000100000000 O
b00000000000000000000000000000001 P
b00000000000000000000000000000000 Q
#1
0=
#2
1*
b00000001 8
b00000010 9
1=
#3
0=
#4
1)
0*
b00000010 8
b00000011 9
1=
#5
0=
#6
b0000000000000100 #
0)
1-
b00000100 5
b00000100 6
b00000011 8
b00000100 9
b00000100 <
1=
#7
0=
#8
b0000000000000100 $
0-
b00000100 8
b00010100 9
1=
#9
0=
#10
1/
b00010100 8
b00010101 9
1=
#11
0=
#12
1*
b00010101 8
b00010110 9
1=
#13
0=
#14
1)
0*
0/
10
b00010110 8
b00010111 9
1=
#15
0=
#16
0)
1,
b00010111 8
b00011000 9
1=
#17
0=
#18
b00000100 '
0(
0,
00
b00001000 6
b00011000 8
b00001010 9
b0000000000000100 ;
1=
#19
0=
#20
b00000001 %
1.
b00001010 8
b00001011 9
1=
#21
0=
#22
1+
b00001011 8
b00000000 9
1=
#23
0=
#24
b00000000 %
b00000001 &
0+
0.
b00000010 2
b00000001 3
b00000000 8
b00000001 9
1=
#25
0=
#26
1*
b00000001 8
b00000010 9
1=
#27
0=
#28
1)
0*
b00000001 4
b00000010 8
b00000011 9
1=
#29
0=
#30
b0000000000000101 #
0)
1-
b00000101 5
b00001001 6
b00000011 8
b00000100 9
b00000101 <
1=
#31
0=
#32
b0000000000000101 $
0-
b00000100 8
b00010100 9
1=
#33
0=
#34
1/
b00000000 3
b00010100 8
b00010101 9
1=
#35
0=
#36
1*
b00010101 8
b00010110 9
1=
#37
0=
#38
1)
0*
0/
10
b00000001 3
b00000000 4
b00001001 5
b00010110 8
b00010111 9
1=
#39
0=
#40
b0000000000000100 #
0)
1,
b00001000 5
b00001000 6
b00010111 8
b00011000 9
b00000100 <
1=
#41
0=
#42
b00001000 '
0,
00
b00000100 5
b00001100 6
b00011000 8
b00001010 9
b0000000000001000 ;
1=
#43
0=
#44
b00000010 %
1.
b00001010 8
b00001011 9
1=
#45
0=
#46
1+
b00001011 8
b00000000 9
1=
#47
0=
#48
b00000000 %
b00000010 &
0+
0.
b00000011 2
b00000010 3
b00000000 8
b00000001 9
1=
#49
0=
#50
1*
b00000001 8
b00000010 9
1=
#51
0=
#52
1)
0*
b00000010 4
b00000010 8
b00000011 9
1=
#53
0=
#54
b0000000000000000 #
0)
1-
b00000000 5
b00001000 6
b00000011 8
b00000100 9
b00000000 <
1=
#55
0=
#56
b0000000000000000 $
0-
b00000100 8
b00010100 9
1=
#57
0=
#58
1/
b00000000 3
b00010100 8
b00010101 9
1=
#59
0=
#60
1*
b00010101 8
b00010110 9
1=
#61
0=
#62
1)
0*
0/
10
b00000010 3
b00000000 4
b00001000 5
b00010110 8
b00010111 9
1=
#63
0=
#64
b0000000000000100 #
0)
1,
b00001100 5
b00001100 6
b00010111 8
b00011000 9
b00000100 <
1=
#65
0=
#66
b00001100 '
0,
00
b00000100 5
b00010000 6
b00011000 8
b00001010 9
b0000000000001100 ;
1=
#67
0=
#68
b00000011 %
1.
b00001010 8
b00001011 9
1=
#69
0=
#70
1+
b00001011 8
b00000000 9
1=
#71
0=
#72
b00000000 %
b00000011 &
0+
0.
b00000100 2
b00000011 3
b00000000 8
b00000001 9
1=
#73
0=
#74
1*
b00000001 8
b00000010 9
1=
#75
0=
#76
1)
0*
b00000011 4
b00000010 8
b00000011 9
1=
#77
0=
#78
b0000000000000000 #
0)
1-
b00000000 5
b00001100 6
b00000011 8
b00000100 9
b00000000 <
1=
#79
0=
#80
0-
b00000100 8
b00010100 9
1=
#81
0=
#82
1/
b00000000 3
b00010100 8
b00010101 9
1=
#83
0=
#84
1*
b00010101 8
b00010110 9
1=
#85
0=
#86
1)
0*
0/
10
b00000011 3
b00000000 4
b00001100 5
b00010110 8
b00010111 9
1=
#87
0=
#88
b0000000000000100 #
0)
1,
b00010000 5
b00010000 6
b00010111 8
b00011000 9
b00000100 <
1=
#89
0=
#90
b00010000 '
0,
00
b00000100 5
b00010100 6
b00011000 8
b00001010 9
b0000000000010000 ;
1=
#91
0=
#92
b00000100 %
1.
b00001010 8
b00001011 9
1=
#93
0=
#94
1+
b00001011 8
b00000000 9
1=
#95
0=
#96
b00000000 %
b00000100 &
0+
0.
b00000101 2
b00000100 3
b00000000 8
b00000001 9
1=
#97
0=
#98
1*
b00000001 8
b00000010 9
1=
#99
0=
#100
1)
0*
b00000100 4
b00000010 8
b00000011 9
1=
#101
0=
#102
b0000000000000000 #
0)
1-
b00000000 5
b00010000 6
b00000011 8
b00000100 9
b00000000 <
1=
#103
0=
#104
0-
b00000100 8
b00010100 9
1=
#105
0=
#106
1/
b00000000 3
b00010100 8
b00010101 9
1=
#107
0=
#108
1*
b00010101 8
b00010110 9
1=
#109
0=
#110
1)
0*
0/
10
b00000100 3
b00000000 4
b00010000 5
b00010110 8
b00010111 9
1=
#111
0=
#112
b0000000000000100 #
0)
1,
b00010100 5
b00010100 6
b00010111 8
b00011000 9
b00000100 <
1=
#113
0=
#114
b00010100 '
0,
00
b00000100 5
b00011000 6
b00011000 8
b00001010 9
b0000000000010100 ;
1=
#115
0=
#116
b00000101 %
1.
b00001010 8
b00001011 9
1=
#117
0=
#118
1+
b00001011 8
b00000000 9
1=
#119
0=
#120
b00000000 %
b00000101 &
0+
0.
b00000110 2
b00000101 3
b00000000 8
b00000001 9
1=
#121
0=
#122
1*
b00000001 8
b00000010 9
1=
#123
0=
#124
1)
0*
b00000101 4
b00000010 8
b00000011 9
1=
#125
0=
#126
b0000000000000000 #
0)
1-
b00000000 5
b00010100 6
b00000011 8
b00000100 9
b00000000 <
1=
#127
0=
#128
0-
b00000100 8
b00010100 9
1=
#129
0=
#130
1/
b00000000 3
b00010100 8
b00010101 9
1=
#131
0=
#132
1*
b00010101 8
b00010110 9
1=
#133
0=
#134
1)
0*
0/
10
b00000101 3
b00000000 4
b00010100 5
b00010110 8
b00010111 9
1=
#135
0=
#136
b0000000000000100 #
0)
1,
b00011000 5
b00011000 6
b00010111 8
b00011000 9
b00000100 <
1=
#137
0=
#138
b00011000 '
0,
00
b00000100 5
b00011100 6
b00011000 8
b00001010 9
b0000000000011000 ;
1=
#139
0=
#140
b00000110 %
1.
b00001010 8
b00001011 9
1=
#141
0=
#142
1+
b00001011 8
b00000000 9
1=
#143
0=
#144
b00000000 %
b00000110 &
0+
0.
b00000111 2
b00000110 3
b00000000 8
b00000001 9
1=
#145
0=
#146
1*
b00000001 8
b00000010 9
1=
#147
0=
#148
1)
0*
b00000110 4
b00000010 8
b00000011 9
1=
#149
0=
#150
b0000000000000000 #
0)
1-
b00000000 5
b00011000 6
b00000011 8
b00000100 9
b00000000 <
1=
#151
0=
#152
0-
b00000100 8
b00010100 9
1=
#153
0=
#154
1/
b00000000 3
b00010100 8
b00010101 9
1=
#155
0=
#156
1*
b00010101 8
b00010110 9
1=
#157
0=
#158
1)
0*
0/
10
b00000110 3
b00000000 4
b00011000 5
b00010110 8
b00010111 9
1=
#159
0=
#160
b0000000000000100 #
0)
1,
b00011100 5
b00011100 6
b00010111 8
b00011000 9
b00000100 <
1=
#161
0=
#162
b00011100 '
0,
00
b00000100 5
b00100000 6
b00011000 8
b00001010 9
b0000000000011100 ;
1=
#163
0=
#164
b00000111 %
1.
b00001010 8
b00001011 9
1=
#165
0=
#166
1+
b00001011 8
b00000000 9
1=
#167
0=
#168
b00000000 %
b00000111 &
0+
0.
b00001000 2
b00000111 3
b00000000 8
b00000001 9
1=
#169
0=
#170
1*
b00000001 8
b00000010 9
1=
#171
0=
#172
1)
0*
b00000111 4
b00000010 8
b00000011 9
1=
#173
0=
#174
b0000000000000000 #
0)
1-
b00000000 5
b00011100 6
b00000011 8
b00000100 9
b00000000 <
1=
#175
0=
#176
0-
b00000100 8
b00010100 9
1=
#177
0=
#178
1/
b00000000 3
b00010100 8
b00010101 9
1=
#179
0=
#180
1*
b00010101 8
b00010110 9
1=
#181
0=
#182
1)
0*
0/
10
b00000111 3
b00000000 4
b00011100 5
b00010110 8
b00010111 9
1=
#183
0=
#184
b0000000000000100 #
0)
1,
b00100000 5
b00100000 6
b00010111 8
b00011000 9
b00000100 <
1=
#185
0=
#186
b00100000 '
0,
00
b00000100 5
b00100100 6
b00011000 8
b00001010 9
b0000000000100000 ;
1=
#187
0=
#188
b00001000 %
1.
b00001010 8
b00001011 9
1=
#189
0=
#190
1+
b00001011 8
b00000000 9
1=
#191
0=
#192
b00000000 %
b00001000 &
0+
0.
b00001001 2
b00001000 3
b00000000 8
b00000001 9
1=
#193
0=
#194
1*
b00000001 8
b00000010 9
1=
#195
0=
#196
1)
0*
b00001000 4
b00000010 8
b00000011 9
1=
#197
0=
#198
b0000000000000000 #
0)
1-
b00000000 5
b00100000 6
b00000011 8
b00000100 9
b00000000 <
1=
#199
0=
#200
0-
b00000100 8
b00010100 9
1=
#201
0=
#202
1/
b00000000 3
b00010100 8
b00010101 9
1=
#203
0=
#204
1*
b00010101 8
b00010110 9
1=
#205
0=
#206
1)
0*
0/
10
b00001000 3
b00000000 4
b00100000 5
b00010110 8
b00010111 9
1=
#207
0=
#208
b0000000000000100 #
0)
1,
b00100100 5
b00100100 6
b00010111 8
b00011000 9
b00000100 <
1=
#209
0=
#210
b00100100 '
0,
00
b00000100 5
b00101000 6
b00011000 8
b00001010 9
b0000000000100100 ;
1=
#211
0=
#212
b00001001 %
1.
b00001010 8
b00001011 9
1=
#213
0=
#214
1+
b00001011 8
b00000000 9
1=
#215
0=
#216
b00000000 %
b00001001 &
0+
0.
b00001010 2
b00001001 3
b00000000 8
b00000001 9
1=
#217
0=
#218
1*
b00000001 8
b00000010 9
1=
#219
0=
#220
1)
0*
b00001001 4
b00000010 8
b00000011 9
1=
#221
0=
#222
b0000000000000000 #
0)
1-
b00000000 5
b00100100 6
b00000011 8
b00000100 9
b00000000 <
1=
#223
0=
#224
0-
b00000100 8
b00010100 9
1=
#225
0=
#226
1/
b00000000 3
b00010100 8
b00010101 9
1=
#227
0=
#228
1*
b00010101 8
b00010110 9
1=
#229
0=
#230
1)
0*
0/
10
b00001001 3
b00000000 4
b00100100 5
b00010110 8
b00010111 9
1=
#231
0=
#232
b0000000000000100 #
0)
1,
b00101000 5
b00101000 6
b00010111 8
b00011000 9
b00000100 <
1=
#233
0=
#234
b00101000 '
0,
00
b00000100 5
b00101100 6
b00011000 8
b00001010 9
b0000000000101000 ;
1=
#235
0=
#236
b00001010 %
1.
b00001010 8
b00001011 9
1=
#237
0=
#238
1+
b00001011 8
b00000000 9
1=
#239
0=
#240
b00000000 %
b00001010 &
0+
0.
b00001011 2
b00001010 3
b00000000 8
b00000001 9
1=
#241
0=
#242
1*
b00000001 8
b00000010 9
1=
#243
0=
#244
1)
0*
b00001010 4
b00000010 8
b00000011 9
1=
#245
0=
#246
b0000000000000000 #
0)
1-
b00000000 5
b00101000 6
b00000011 8
b00000100 9
b00000000 <
1=
#247
0=
#248
0-
b00000100 8
b00010100 9
1=
#249
0=
#250
1/
b00000000 3
b00010100 8
b00010101 9
1=
#251
0=
#252
1*
b00010101 8
b00010110 9
1=
#253
0=
#254
1)
0*
0/
10
b00001010 3
b00000000 4
b00101000 5
b00010110 8
b00010111 9
1=
#255
0=
#256
b0000000000000100 #
0)
1,
b00101100 5
b00101100 6
b00010111 8
b00011000 9
b00000100 <
1=
#257
0=
#258
b00101100 '
0,
00
b00000100 5
b00110000 6
b00011000 8
b00001010 9
b0000000000101100 ;
1=
#259
0=
#260
b00001011 %
1.
b00001010 8
b00001011 9
1=
#261
0=
#262
1+
b00001011 8
b00000000 9
1=
#263
0=
#264
b00000000 %
b00001011 &
0+
0.
b00001100 2
b00001011 3
b00000000 8
b00000001 9
1=
#265
0=
#266
1*
b00000001 8
b00000010 9
1=
#267
0=
#268
1)
0*
b00001011 4
b00000010 8
b00000011 9
1=
#269
0=
#270
b0000000000000000 #
0)
1-
b00000000 5
b00101100 6
b00000011 8
b00000100 9
b00000000 <
1=
#271
0=
#272
0-
b00000100 8
b00010100 9
1=
#273
0=
#274
1/
b00000000 3
b00010100 8
b00010101 9
1=
#275
0=
#276
1*
b00010101 8
b00010110 9
1=
#277
0=
#278
1)
0*
0/
10
b00001011 3
b00000000 4
b00101100 5
b00010110 8
b00010111 9
1=
#279
0=
#280
b0000000000000100 #
0)
1,
b00110000 5
b00110000 6
b00010111 8
b00011000 9
b00000100 <
1=
#281
0=
#282
b00110000 '
0,
00
b00000100 5
b00110100 6
b00011000 8
b00001010 9
b0000000000110000 ;
1=
#283
0=
#284
b00001100 %
1.
b00001010 8
b00001011 9
1=
#285
0=
#286
1+
b00001011 8
b00000000 9
1=
#287
0=
#288
b00000000 %
b00001100 &
0+
0.
b00001101 2
b00001100 3
b00000000 8
b00000001 9
1=
#289
0=
#290
1*
b00000001 8
b00000010 9
1=
#291
0=
#292
1)
0*
b00001100 4
b00000010 8
b00000011 9
1=
#293
0=
#294
b0000000000000000 #
0)
1-
b00000000 5
b00110000 6
b00000011 8
b00000100 9
b00000000 <
1=
#295
0=
#296
0-
b00000100 8
b00010100 9
1=
#297
0=
#298
1/
b00000000 3
b00010100 8
b00010101 9
1=
