wv_little_cpu.vcd
$version Generated by VerilatedVcd $end
$date Tue Apr 30 21:46:41 2024
 $end
$timescale   1ps $end

 $scope module TOP $end
  $var wire  1 = i_clk $end
  $var wire  1 > i_rst $end
  $scope module $unit $end
   $var wire 32 Q ALU_ADD [31:0] $end
   $var wire 32 P ALU_XOR [31:0] $end
   $var wire  8 B OP_add [7:0] $end
   $var wire  8 C OP_xor [7:0] $end
  $upscope $end
  $scope module little_cpu $end
   $var wire 32 ? BITS [31:0] $end
   $var wire  1 ( acc_zero $end
   $var wire  8 ' accum_out [7:0] $end
   $var wire  1 1 alu_ctrl $end
   $var wire  8 6 alu_out_wire [7:0] $end
   $var wire  1 = i_clk $end
   $var wire  1 > i_rst $end
   $var wire 16 $ inst_reg_out [15:0] $end
   $var wire  1 , ld_acc $end
   $var wire  1 - ld_ir $end
   $var wire  1 * ld_mar $end
   $var wire  1 ) ld_mdr $end
   $var wire  1 + ld_pc $end
   $var wire  8 4 mar_to_mem_module_wire [7:0] $end
   $var wire 16 # mdr_reg_out [15:0] $end
   $var wire  1 @ mem_rw $end
   $var wire 16 A mem_to_mdr_reg_wire [15:0] $end
   $var wire  1 0 mx_accum_ab $end
   $var wire  8 3 mx_ir_pc_mem_wire [7:0] $end
   $var wire  1 / mx_mar_ab $end
   $var wire  1 . mx_pc_ab $end
   $var wire  8 5 mx_to_accum_wire [7:0] $end
   $var wire  8 2 p1_mx_wire [7:0] $end
   $var wire  8 % pc_mx_wire [7:0] $end
   $var wire  8 & pc_out [7:0] $end
   $scope module accum $end
    $var wire 32 N BITS [31:0] $end
    $var wire  1 = i_clk $end
    $var wire  8 5 i_data [7:0] $end
    $var wire  1 , i_ld $end
    $var wire  8 ' o_data [7:0] $end
    $var wire  1 ( o_zero $end
    $var wire  8 ' value [7:0] $end
   $upscope $end
   $scope module alu $end
    $var wire 32 N BITS [31:0] $end
    $var wire  8 < i_l [7:0] $end
    $var wire  1 1 i_op $end
    $var wire  8 ' i_r [7:0] $end
    $var wire  8 6 o_out [7:0] $end
   $upscope $end
   $scope module ctrl $end
    $var wire  8 I S_Exe_Alu_0 [7:0] $end
    $var wire  8 J S_Exe_Alu_1 [7:0] $end
    $var wire  8 K S_Exe_Alu_2 [7:0] $end
    $var wire  8 L S_Exe_Alu_3 [7:0] $end
    $var wire  8 M S_Exe_Alu_4 [7:0] $end
    $var wire  8 B S_Fetch_0 [7:0] $end
    $var wire  8 C S_Fetch_1 [7:0] $end
    $var wire  8 D S_Fetch_2 [7:0] $end
    $var wire  8 E S_Fetch_3 [7:0] $end
    $var wire  8 F S_Fetch_4 [7:0] $end
    $var wire  8 G S_Inc_0 [7:0] $end
    $var wire  8 H S_Inc_1 [7:0] $end
    $var wire  8 8 current_state [7:0] $end
    $var wire  1 ( i_acc_zero $end
    $var wire  1 = i_clk $end
    $var wire  8 7 i_opcode [7:0] $end
    $var wire  1 > i_rst $end
    $var wire  8 9 next_state [7:0] $end
    $var wire  1 1 o_alu_ctrl $end
    $var wire  1 , o_ld_acc $end
    $var wire  1 - o_ld_ir $end
    $var wire  1 * o_ld_mar $end
    $var wire  1 ) o_ld_mdr $end
    $var wire  1 + o_ld_pc $end
    $var wire  1 @ o_mem_rw $end
    $var wire  1 0 o_mux_ACC_to_mdr_alur $end
    $var wire  1 / o_mux_MAR_to_pc_ird $end
    $var wire  1 . o_mux_PC_to_ir_p1 $end
   $upscope $end
   $scope module inst_reg $end
    $var wire 32 ? BITS [31:0] $end
    $var wire  1 = i_clk $end
    $var wire 16 # i_data [15:0] $end
    $var wire  1 - i_ld $end
    $var wire 16 $ o_data [15:0] $end
    $var wire 16 $ value [15:0] $end
   $upscope $end
   $scope module mem $end
    $var wire 32 ? BITS [31:0] $end
    $var wire 32 O MEMADDRS [31:0] $end
    $var wire  8 4 i_addr [7:0] $end
    $var wire  1 = i_clk $end
    $var wire 16 ; i_data [15:0] $end
    $var wire  1 @ i_rw $end
    $var wire 16 A o_data [15:0] $end
   $upscope $end
   $scope module mem_addr_reg $end
    $var wire 32 N BITS [31:0] $end
    $var wire  1 = i_clk $end
    $var wire  8 3 i_data [7:0] $end
    $var wire  1 * i_ld $end
    $var wire  8 4 o_data [7:0] $end
    $var wire  8 4 value [7:0] $end
   $upscope $end
   $scope module mem_data_reg $end
    $var wire 32 ? BITS [31:0] $end
    $var wire  1 = i_clk $end
    $var wire 16 A i_data [15:0] $end
    $var wire  1 ) i_ld $end
    $var wire 16 # o_data [15:0] $end
    $var wire 16 # value [15:0] $end
   $upscope $end
   $scope module mx_alur_mdr $end
    $var wire 32 N BITS [31:0] $end
    $var wire  8 6 i_a [7:0] $end
    $var wire  1 0 i_ab_sw $end
    $var wire  8 < i_b [7:0] $end
    $var wire  8 5 o_out [7:0] $end
   $upscope $end
   $scope module mx_ir_pc $end
    $var wire 32 N BITS [31:0] $end
    $var wire  8 : i_a [7:0] $end
    $var wire  1 / i_ab_sw $end
    $var wire  8 & i_b [7:0] $end
    $var wire  8 3 o_out [7:0] $end
   $upscope $end
   $scope module mx_p1_inst_rg $end
    $var wire 32 N BITS [31:0] $end
    $var wire  8 2 i_a [7:0] $end
    $var wire  1 . i_ab_sw $end
    $var wire  8 : i_b [7:0] $end
    $var wire  8 % o_out [7:0] $end
   $upscope $end
   $scope module pc_plus_one $end
    $var wire 32 N BITS [31:0] $end
    $var wire  8 & in [7:0] $end
    $var wire  8 2 out [7:0] $end
   $upscope $end
   $scope module prog_ctr $end
    $var wire 32 N BITS [31:0] $end
    $var wire  1 = i_clk $end
    $var wire  8 % i_data [7:0] $end
    $var wire  1 + i_ld $end
    $var wire  8 & o_data [7:0] $end
    $var wire  8 & value [7:0] $end
   $upscope $end
  $upscope $end
 $upscope $end
$enddefinitions $end


#0
b0000000000000000 #
b0000000000000000 $
b00000000 %
b00000000 &
b00000000 '
1(
0)
0*
0+
0,
0-
0.
0/
00
01
b00000001 2
b00000000 3
b00000000 4
b00000000 5
b00000000 6
b00000000 7
b00000000 8
b00000001 9
b00000000 :
b0000000000000000 ;
b00000000 <
1=
0>
b00000000000000000000000000010000 ?
0@
b0000000100000000 A
b00000000 B
b00000001 C
b00000010 D
b00000011 E
b00000100 F
b00001010 G
b00001011 H
b00010100 I
b00010101 J
b00010110 K
b00010111 L
b00011000 M
b00000000000000000000000000001000 N
b00000000000000000000000100000000 O
b00000000000000000000000000000001 P
b00000000000000000000000000000000 Q
#1
0=
#2
1*
b00000001 8
b00000010 9
1=
#3
0=
#4
1)
0*
b00000010 8
b00000011 9
1=
#5
0=
#6
b0000000100000000 #
0)
1-
b00000011 8
b00000100 9
1=
#7
0=
#8
b0000000100000000 $
b00000010 %
0-
b00000001 7
b00000100 8
b00010100 9
b00000010 :
1=
#9
0=
#10
1/
b00000010 3
b00010100 8
b00010101 9
1=
#11
0=
#12
1*
b00010101 8
b00010110 9
1=
#13
0=
#14
1)
0*
0/
10
11
b00000000 3
b00000010 4
b00010110 8
b00010111 9
1=
#15
0=
#16
b1000000000000000 #
0)
1,
b00010111 8
b00011000 9
1=
#17
0=
#18
0,
00
b00011000 8
b00001010 9
1=
#19
0=
#20
b00000001 %
1.
b00001010 8
b00001011 9
1=
#21
0=
#22
1+
b00001011 8
b00000000 9
1=
#23
0=
#24
b00000010 %
b00000001 &
0+
0.
b00000010 2
b00000001 3
b00000000 8
b00000001 9
1=
#25
0=
#26
1*
b00000001 8
b00000010 9
1=
#27
0=
#28
1)
0*
b00000001 4
b00000010 8
b00000011 9
1=
#29
0=
#30
0)
1-
b00000011 8
b00000100 9
1=
#31
0=
#32
b1000000000000000 $
b00000000 %
0-
b10000000 7
b00000100 8
b00001010 9
b00000000 :
1=
#33
0=
#34
b00000010 %
1.
b00001010 8
b00001011 9
1=
#35
0=
#36
1+
b00001011 8
b00000000 9
1=
#37
0=
#38
b00000000 %
b00000010 &
0+
0.
b00000011 2
b00000010 3
b00000000 8
b00000001 9
1=
#39
0=
#40
1*
b00000001 8
b00000010 9
1=
#41
0=
#42
1)
0*
b00000010 4
b00000010 8
b00000011 9
1=
#43
0=
#44
0)
1-
b00000011 8
b00000100 9
1=
#45
0=
#46
0-
b00000100 8
b00001010 9
1=
#47
0=
#48
b00000011 %
1.
b00001010 8
b00001011 9
1=
#49
0=
#50
1+
b00001011 8
b00000000 9
1=
#51
0=
#52
b00000000 %
b00000011 &
0+
0.
b00000100 2
b00000011 3
b00000000 8
b00000001 9
1=
#53
0=
#54
1*
b00000001 8
b00000010 9
1=
#55
0=
#56
1)
0*
b00000011 4
b00000010 8
b00000011 9
1=
#57
0=
#58
0)
1-
b00000011 8
b00000100 9
1=
#59
0=
#60
0-
b00000100 8
b00001010 9
1=
#61
0=
#62
b00000100 %
1.
b00001010 8
b00001011 9
1=
#63
0=
#64
1+
b00001011 8
b00000000 9
1=
#65
0=
#66
b00000000 %
b00000100 &
0+
0.
b00000101 2
b00000100 3
b00000000 8
b00000001 9
1=
#67
0=
#68
1*
b00000001 8
b00000010 9
1=
#69
0=
#70
1)
0*
b00000100 4
b00000010 8
b00000011 9
1=
#71
0=
#72
0)
1-
b00000011 8
b00000100 9
1=
#73
0=
#74
0-
b00000100 8
b00001010 9
1=
#75
0=
#76
b00000101 %
1.
b00001010 8
b00001011 9
1=
#77
0=
#78
1+
b00001011 8
b00000000 9
1=
#79
0=
#80
b00000000 %
b00000101 &
0+
0.
b00000110 2
b00000101 3
b00000000 8
b00000001 9
1=
#81
0=
#82
1*
b00000001 8
b00000010 9
1=
#83
0=
#84
1)
0*
b00000101 4
b00000010 8
b00000011 9
1=
#85
0=
#86
b0000000000000000 #
0)
1-
b00000011 8
b00000100 9
1=
#87
0=
#88
b0000000000000000 $
0-
b00000000 7
b00000100 8
b00010100 9
1=
#89
0=
#90
1/
b00000000 3
b00010100 8
b00010101 9
1=
#91
0=
#92
1*
b00010101 8
b00010110 9
1=
#93
0=
#94
1)
0*
0/
10
01
b00000101 3
b00000000 4
b00010110 8
b00010111 9
1=
#95
0=
#96
b0000000100000000 #
0)
1,
b00010111 8
b00011000 9
1=
#97
0=
#98
0,
00
b00011000 8
b00001010 9
1=
#99
0=
#100
b00000110 %
1.
b00001010 8
b00001011 9
1=
#101
0=
#102
1+
b00001011 8
b00000000 9
1=
#103
0=
#104
b00000000 %
b00000110 &
0+
0.
b00000111 2
b00000110 3
b00000000 8
b00000001 9
1=
#105
0=
#106
1*
b00000001 8
b00000010 9
1=
#107
0=
#108
1)
0*
b00000110 4
b00000010 8
b00000011 9
1=
#109
0=
#110
b0000000000000000 #
0)
1-
b00000011 8
b00000100 9
1=
#111
0=
#112
0-
b00000100 8
b00010100 9
1=
#113
0=
#114
1/
b00000000 3
b00010100 8
b00010101 9
1=
#115
0=
#116
1*
b00010101 8
b00010110 9
1=
#117
0=
#118
1)
0*
0/
10
b00000110 3
b00000000 4
b00010110 8
b00010111 9
1=
#119
0=
#120
b0000000100000000 #
0)
1,
b00010111 8
b00011000 9
1=
#121
0=
#122
0,
00
b00011000 8
b00001010 9
1=
#123
0=
#124
b00000111 %
1.
b00001010 8
b00001011 9
1=
#125
0=
#126
1+
b00001011 8
b00000000 9
1=
#127
0=
#128
b00000000 %
b00000111 &
0+
0.
b00001000 2
b00000111 3
b00000000 8
b00000001 9
1=
#129
0=
#130
1*
b00000001 8
b00000010 9
1=
#131
0=
#132
1)
0*
b00000111 4
b00000010 8
b00000011 9
1=
#133
0=
#134
b0000000000000000 #
0)
1-
b00000011 8
b00000100 9
1=
#135
0=
#136
0-
b00000100 8
b00010100 9
1=
#137
0=
#138
1/
b00000000 3
b00010100 8
b00010101 9
1=
#139
0=
#140
1*
b00010101 8
b00010110 9
1=
#141
0=
#142
1)
0*
0/
10
b00000111 3
b00000000 4
b00010110 8
b00010111 9
1=
#143
0=
#144
b0000000100000000 #
0)
1,
b00010111 8
b00011000 9
1=
#145
0=
#146
0,
00
b00011000 8
b00001010 9
1=
#147
0=
#148
b00001000 %
1.
b00001010 8
b00001011 9
1=
#149
0=
#150
1+
b00001011 8
b00000000 9
1=
#151
0=
#152
b00000000 %
b00001000 &
0+
0.
b00001001 2
b00001000 3
b00000000 8
b00000001 9
1=
#153
0=
#154
1*
b00000001 8
b00000010 9
1=
#155
0=
#156
1)
0*
b00001000 4
b00000010 8
b00000011 9
1=
#157
0=
#158
b0000000000000000 #
0)
1-
b00000011 8
b00000100 9
1=
#159
0=
#160
0-
b00000100 8
b00010100 9
1=
#161
0=
#162
1/
b00000000 3
b00010100 8
b00010101 9
1=
#163
0=
#164
1*
b00010101 8
b00010110 9
1=
#165
0=
#166
1)
0*
0/
10
b00001000 3
b00000000 4
b00010110 8
b00010111 9
1=
#167
0=
#168
b0000000100000000 #
0)
1,
b00010111 8
b00011000 9
1=
#169
0=
#170
0,
00
b00011000 8
b00001010 9
1=
#171
0=
#172
b00001001 %
1.
b00001010 8
b00001011 9
1=
#173
0=
#174
1+
b00001011 8
b00000000 9
1=
#175
0=
#176
b00000000 %
b00001001 &
0+
0.
b00001010 2
b00001001 3
b00000000 8
b00000001 9
1=
#177
0=
#178
1*
b00000001 8
b00000010 9
1=
#179
0=
#180
1)
0*
b00001001 4
b00000010 8
b00000011 9
1=
#181
0=
#182
b0000000000000000 #
0)
1-
b00000011 8
b00000100 9
1=
#183
0=
#184
0-
b00000100 8
b00010100 9
1=
#185
0=
#186
1/
b00000000 3
b00010100 8
b00010101 9
1=
#187
0=
#188
1*
b00010101 8
b00010110 9
1=
#189
0=
#190
1)
0*
0/
10
b00001001 3
b00000000 4
b00010110 8
b00010111 9
1=
#191
0=
#192
b0000000100000000 #
0)
1,
b00010111 8
b00011000 9
1=
#193
0=
#194
0,
00
b00011000 8
b00001010 9
1=
#195
0=
#196
b00001010 %
1.
b00001010 8
b00001011 9
1=
#197
0=
#198
1+
b00001011 8
b00000000 9
1=
#199
0=
#200
b00000000 %
b00001010 &
0+
0.
b00001011 2
b00001010 3
b00000000 8
b00000001 9
1=
#201
0=
#202
1*
b00000001 8
b00000010 9
1=
#203
0=
#204
1)
0*
b00001010 4
b00000010 8
b00000011 9
1=
#205
0=
#206
b0000000000000000 #
0)
1-
b00000011 8
b00000100 9
1=
#207
0=
#208
0-
b00000100 8
b00010100 9
1=
#209
0=
#210
1/
b00000000 3
b00010100 8
b00010101 9
1=
#211
0=
#212
1*
b00010101 8
b00010110 9
1=
#213
0=
#214
1)
0*
0/
10
b00001010 3
b00000000 4
b00010110 8
b00010111 9
1=
#215
0=
#216
b0000000100000000 #
0)
1,
b00010111 8
b00011000 9
1=
#217
0=
#218
0,
00
b00011000 8
b00001010 9
1=
#219
0=
#220
b00001011 %
1.
b00001010 8
b00001011 9
1=
#221
0=
#222
1+
b00001011 8
b00000000 9
1=
#223
0=
#224
b00000000 %
b00001011 &
0+
0.
b00001100 2
b00001011 3
b00000000 8
b00000001 9
1=
#225
0=
#226
1*
b00000001 8
b00000010 9
1=
#227
0=
#228
1)
0*
b00001011 4
b00000010 8
b00000011 9
1=
#229
0=
#230
b0000000000000000 #
0)
1-
b00000011 8
b00000100 9
1=
#231
0=
#232
0-
b00000100 8
b00010100 9
1=
#233
0=
#234
1/
b00000000 3
b00010100 8
b00010101 9
1=
#235
0=
#236
1*
b00010101 8
b00010110 9
1=
#237
0=
#238
1)
0*
0/
10
b00001011 3
b00000000 4
b00010110 8
b00010111 9
1=
#239
0=
#240
b0000000100000000 #
0)
1,
b00010111 8
b00011000 9
1=
#241
0=
#242
0,
00
b00011000 8
b00001010 9
1=
#243
0=
#244
b00001100 %
1.
b00001010 8
b00001011 9
1=
#245
0=
#246
1+
b00001011 8
b00000000 9
1=
#247
0=
#248
b00000000 %
b00001100 &
0+
0.
b00001101 2
b00001100 3
b00000000 8
b00000001 9
1=
#249
0=
#250
1*
b00000001 8
b00000010 9
1=
#251
0=
#252
1)
0*
b00001100 4
b00000010 8
b00000011 9
1=
#253
0=
#254
b0000000000000000 #
0)
1-
b00000011 8
b00000100 9
1=
#255
0=
#256
0-
b00000100 8
b00010100 9
1=
#257
0=
#258
1/
b00000000 3
b00010100 8
b00010101 9
1=
#259
0=
#260
1*
b00010101 8
b00010110 9
1=
#261
0=
#262
1)
0*
0/
10
b00001100 3
b00000000 4
b00010110 8
b00010111 9
1=
#263
0=
#264
b0000000100000000 #
0)
1,
b00010111 8
b00011000 9
1=
#265
0=
#266
0,
00
b00011000 8
b00001010 9
1=
#267
0=
#268
b00001101 %
1.
b00001010 8
b00001011 9
1=
#269
0=
#270
1+
b00001011 8
b00000000 9
1=
#271
0=
#272
b00000000 %
b00001101 &
0+
0.
b00001110 2
b00001101 3
b00000000 8
b00000001 9
1=
#273
0=
#274
1*
b00000001 8
b00000010 9
1=
#275
0=
#276
1)
0*
b00001101 4
b00000010 8
b00000011 9
1=
#277
0=
#278
b0000000000000000 #
0)
1-
b00000011 8
b00000100 9
1=
#279
0=
#280
0-
b00000100 8
b00010100 9
1=
#281
0=
#282
1/
b00000000 3
b00010100 8
b00010101 9
1=
#283
0=
#284
1*
b00010101 8
b00010110 9
1=
#285
0=
#286
1)
0*
0/
10
b00001101 3
b00000000 4
b00010110 8
b00010111 9
1=
#287
0=
#288
b0000000100000000 #
0)
1,
b00010111 8
b00011000 9
1=
#289
0=
#290
0,
00
b00011000 8
b00001010 9
1=
#291
0=
#292
b00001110 %
1.
b00001010 8
b00001011 9
1=
#293
0=
#294
1+
b00001011 8
b00000000 9
1=
#295
0=
#296
b00000000 %
b00001110 &
0+
0.
b00001111 2
b00001110 3
b00000000 8
b00000001 9
1=
#297
0=
#298
1*
b00000001 8
b00000010 9
1=
